@startuml sequence-patient_screen

title **Edit a patient**

actor doctor
participant "patient screen" as screen
participant "Patient:patient" as patient << (C,#ADD1B2) >>
database database

'actions
doctor --> screen : select patient
doctor --> screen : edit fields of form
doctor -> screen : edit_patient()
activate screen
screen -> screen : get values
alt all fields filled
  screen -> screen : get id of selected patient
  screen -> patient ** : Patient:getById(int id)
  activate patient
  patient -> database : get patient data
  activate database
  database --> patient : patient data
  deactivate database
  deactivate patient
  screen -> patient : set values
  screen -> patient : bool:update()
  activate patient
  patient -> database : commit changes
  activate database
  database --> patient : response of operation
  deactivate database
  patient --> screen : response of operation
  deactivate patient
  destroy patient
  screen --> doctor : response of operation
  deactivate screen
else some field empty
  screen --> doctor : fill all fields and try again
end
@enduml
