@startuml sequence-exam_screen
title **Export exam**

actor "doctor" as doctor 
participant "exam screen" as screen
participant "print window" as print 
database "local storage" as database 

doctor -> screen : request export
activate screen
    alt exam_id is valid:
        activate print
        screen -> print : request export
        print -> print : make PDF file
        print -> database : save the PDF file
    else 
        screen --> doctor : make a exam or select \na exam from database
    end

@enduml