@startuml connection_recover

!includesub definitions.iuml!DEF
!includesub definitions.iuml!VAR

rectangle "Recuperação de Conexão" {
    start
    fork
        :Fala "Conectado";
    fork again
        :Toca som de conexão;
    fork again
        :Vibra 3 vezes;
    end fork
    :Carrega o arquivo que estava
    sendo editado anteriormente;
    if (É o mesmo arquivo do dispositivo?) then (Sim)
    else (Não)
        :Pergunta ao usuário qual arquivo manter;
        :Carrega o texto da opção escolhida;
    endif
    end
}
@enduml